{
    "simulationApp": {
        "UsbCameraBus": "0",
        "usbComm": "true",
        "usbGps": "true",
        "commPort": "0",
        "gpsPort": "1",
        "filename1": "\/mnt\/share\/Server\/R&D\/ThermApp Movies\/ThermApp Air\/0124_300117_155_A_F35_T1730_Arsuf_A32_D080\/1557_r0_7.raw",
        "filename2": "\/mnt\/share\/Server\/R&D\/ThermApp Movies\/ThermApp Air\/277_150218_430_A_F19_T1600_ArsufVMD_A30_D70\/4308_r0_8.raw",
        "filenameDay": "r1_0.rawc",
        "isDualSensor": "false",
        "IsAnalytics": "true",
        "mIsSimSensor": "true",
        "IsCMOSSimSensor": "false",
        "mIsCommFilter": "false",
        "mIsFileFilter": "false",
        "mIsDisplayFilter": "false",
        "mIsGimbalTrackingFilter": "false",
        "mIsGimbalControl": "false",
        "mIsGimbalDemoScan": "false",
        "mIsGpsFilter": "false",
        "mIsDualPipeline": "false",
        "mIsStreamingFilter": "false",
        "mIsSnapshootFilter": "false",
        "mIsDayCam": "false",
        "IsDayEncoding": "false",
        "mIsFileEncoding": "false",
        "mIsSensorFlipped": "false",
        "mImageHeight": "288",
        "mImageWidth": "384",
        "DayImageHeight": "480",
        "DayImageWidth": "640",
        "IsDayRawRecord": "false",
        "IsStartWithThermal": "true",
        "IsDJIOSDK": "false",
        "mIsTestAnalytics": "false",
        "mBitRate": "8000",
        "droneAltitude": "50",
        "gimbalAngle": "70",
        "focalLength": "35",
        "mFrameRate": "9999",
        "mIsFileQAFilter": "true",
        "IsAnalogVideo": "true",
        "ColorFilter": "0",
        "IsDebugPrint": "false",
        "IsCheckPerformance": "false",
        "MaxBlobsCount": "10"
    },
    "displayFilter": {
        "mServer": "10.42.0.1",
        "mHdmiEnable": "false",
        "frameBuffer": "0"
    },
    "gimbalFilter": {
        "pitch": "0",
        "yaw": "0",
        "roll": "0",
        "comPortNumber": "0"
    },
    "blobAnalysis": {
        "Environment(4:drone,5:birds,6:d2d)": "4",
        "ImageROI": "-1,-1;0,0",
        "mMaxBlobSize": "1500",
        "mMinBlobWidth": "3",
        "mMinBlobHeight": "5",
        "mMinBlobSize": "8",
        "mIsDebugPrint": "false",
        "mIsCheckPerformance": "true",
        "mIsDrawBlobs": "false",
        "IsSlidingWindow": "false",
        "mThrLowAdj": "0",
        "mThrHighAdj": "0",
        "mIsMotionAnalysis": "false",
        "mIsVisualTracking": "false"
    },
    "depthAnalysis": {
        "mIsDebugPrint": "false",
        "mIsDrawBlobs": "false",
        "mIsCheckPerformance": "true",
        "mIsDualSensor": "false"
    },
    "patternAnalysis": {
        "mNetVer": "..\/AlgoPatternAnalysis\/net_dh20_3.h",
        "mIsDebugPrint": "false",
        "mIsCheckPerformance": "true",
        "mIsPrintVector": "false",
        "mIsGenThrData": "false",
        "PositiveBlobsThreshold": "1"
    },
    "thermalDetection": {
        "mTrackBlobID": "-1",
        "mIsDoTracking": "true",
        "mIsConsistenceFilter": "true",
        "mConsistencyLength": "10",
        "mConsistencyAmount": "4",
        "mIsCheckPerformance": "true"
    },
    "drawingFilter": {
        "mIsDrawBlobs": "true",
        "mIsDrawFalse": "false",
        "mIsDrawSuspect": "false",
        "mIsWriteBlobID": "false",
        "mIsDrawVisualTrackers": "true",
        "mIsWriteFPS": "true",
        "isBlobsOverlayQR": "false"
    },
    "fileQAFilter": {
        "mIsPrintFull": "true",
        "mOutPath": "\/mnt\/share\/Server\/R&D\/ThermApp Movies\/ThermApp Air\/OUTs_dh20_3\/"
    },
    "commFilter": {
        "mServer": "52.59.159.82",
        "is3GStick": "false",
        "ACK": "true",
        "mIsReconnected": "false",
        "mMaxBlobsCount": "10",
        "mIsGimbalYawSwitchedOn": "true",
        "mServerIsConnected": "false"
    },
    "motionAnalysis": {
        "PrintTiming": "false",
        "KernelSize": "3",
        "BlockSize": "2",
        "MaxAge": "25",
        "NoiseVarianceTH": "2500",
        "MinBgVariance": "250",
        "InitBgVariance": "400",
        "MatchingVarianceTH": "2",
        "DetectionVarianceTH": "2",
        "GridWidth": "14",
        "GridHeight": "19",
        "WindowSize": "15",
        "RansacErrorTH": "3",
        "ResetOnSaturation": "false",
        "MuteOnSaturation": "false",
        "HighSaturationTH": "0.1",
        "LowSaturationTH": "0.05",
        "EstimateHumanSize": "false",
        "MaxBlobsTH": "30",
        "ResizeHalf": "true"
    }
}
